pw.println("<!DOCTYPE html>");
pw.println("<html lang=\"en\">");
pw.println("<head>");
pw.println("    <meta charset=\"UTF-8\">");
pw.println("    <meta http-equiv=\"X-UA-Compatible\" content=\"IE=edge\">");
pw.println("    <meta name=\"viewport\" content=\"width=device-width, initial-scale=1.0\">");
pw.println("    <title>Document</title>");
pw.println("</head>");
pw.println("<body>");
pw.println("    ");
pw.println("</body>");
pw.println("</html>");